%YAML 1.1
%TAG !u! tag:unity3d.com,2011:
--- !u!1 &1446358070814190115
GameObject:
  m_ObjectHideFlags: 0
  m_CorrespondingSourceObject: {fileID: 0}
  m_PrefabInstance: {fileID: 0}
  m_PrefabAsset: {fileID: 0}
  serializedVersion: 6
  m_Component:
  - component: {fileID: 1446358070814190117}
  - component: {fileID: 1446358070814190114}
  m_Layer: 0
  m_Name: GameManager
  m_TagString: Untagged
  m_Icon: {fileID: 0}
  m_NavMeshLayer: 0
  m_StaticEditorFlags: 0
  m_IsActive: 1
--- !u!4 &1446358070814190117
Transform:
  m_ObjectHideFlags: 0
  m_CorrespondingSourceObject: {fileID: 0}
  m_PrefabInstance: {fileID: 0}
  m_PrefabAsset: {fileID: 0}
  m_GameObject: {fileID: 1446358070814190115}
  m_LocalRotation: {x: 0, y: 0, z: 0, w: 1}
  m_LocalPosition: {x: 0, y: 0, z: 0}
  m_LocalScale: {x: 1, y: 1, z: 1}
  m_Children: []
  m_Father: {fileID: 0}
  m_RootOrder: 0
  m_LocalEulerAnglesHint: {x: 0, y: 0, z: 0}
--- !u!114 &1446358070814190114
MonoBehaviour:
  m_ObjectHideFlags: 0
  m_CorrespondingSourceObject: {fileID: 0}
  m_PrefabInstance: {fileID: 0}
  m_PrefabAsset: {fileID: 0}
  m_GameObject: {fileID: 1446358070814190115}
  m_Enabled: 1
  m_EditorHideFlags: 0
  m_Script: {fileID: 11500000, guid: 0286ac4afee447741b3b5f88429d9f9c, type: 3}
  m_Name: 
  m_EditorClassIdentifier: 
  lvl: 0
  Container: {fileID: 0}
  stickman: {fileID: 0}
  StickmanPrefab: {fileID: 4413032076912677593, guid: e3447aca340f6814b8e62d957b2b4190,
    type: 3}
  SkittlePrefab: {fileID: 530245185232217477, guid: 1fdf59a7037d1744eb421b8bb7dce72b,
    type: 3}
  SkittleDist: 15
  CamPos:
  - {fileID: 0}
  lvlSkittles:
  - {fileID: 1300085421798733327, guid: 186af94c257b361478fa0efa74f231ae, type: 3}
  - {fileID: 1300085421798733327, guid: 1423e4db03a6dc14298e1d2f105a23bf, type: 3}
  MassInput: {fileID: 0}
